^C:\USERS\JUSTIN\DESKTOP\HELLO-GAME\PROJECT_ONE\GAME.CPP
/c /Zi /nologo /W3 /WX- /Od /D WIN32 /D _DEBUG /D _WINDOWS /D _MBCS /Gm /EHsc /RTC1 /MDd /GS /fp:precise /Zc:wchar_t /Zc:forScope /Fo"X64\DEBUG\\" /Fd"X64\DEBUG\VC120.PDB" /Gd /TP C:\USERS\JUSTIN\DESKTOP\HELLO-GAME\PROJECT_ONE\GAME.CPP
^C:\USERS\JUSTIN\DESKTOP\HELLO-GAME\PROJECT_ONE\LEVELONESTATE.CPP
/c /Zi /nologo /W3 /WX- /Od /D WIN32 /D _DEBUG /D _WINDOWS /D _MBCS /Gm /EHsc /RTC1 /MDd /GS /fp:precise /Zc:wchar_t /Zc:forScope /Fo"X64\DEBUG\\" /Fd"X64\DEBUG\VC120.PDB" /Gd /TP C:\USERS\JUSTIN\DESKTOP\HELLO-GAME\PROJECT_ONE\LEVELONESTATE.CPP
^C:\USERS\JUSTIN\DESKTOP\HELLO-GAME\PROJECT_ONE\PLAYER.CPP
/c /Zi /nologo /W3 /WX- /Od /D WIN32 /D _DEBUG /D _WINDOWS /D _MBCS /Gm /EHsc /RTC1 /MDd /GS /fp:precise /Zc:wchar_t /Zc:forScope /Fo"X64\DEBUG\\" /Fd"X64\DEBUG\VC120.PDB" /Gd /TP C:\USERS\JUSTIN\DESKTOP\HELLO-GAME\PROJECT_ONE\PLAYER.CPP
^C:\USERS\JUSTIN\DESKTOP\HELLO-GAME\PROJECT_ONE\TILE.CPP
/c /Zi /nologo /W3 /WX- /Od /D WIN32 /D _DEBUG /D _WINDOWS /D _MBCS /Gm /EHsc /RTC1 /MDd /GS /fp:precise /Zc:wchar_t /Zc:forScope /Fo"X64\DEBUG\\" /Fd"X64\DEBUG\VC120.PDB" /Gd /TP C:\USERS\JUSTIN\DESKTOP\HELLO-GAME\PROJECT_ONE\TILE.CPP
^C:\USERS\JUSTIN\DESKTOP\HELLO-GAME\PROJECT_ONE\TILEMAP.CPP
/c /Zi /nologo /W3 /WX- /Od /D WIN32 /D _DEBUG /D _WINDOWS /D _MBCS /Gm /EHsc /RTC1 /MDd /GS /fp:precise /Zc:wchar_t /Zc:forScope /Fo"X64\DEBUG\\" /Fd"X64\DEBUG\VC120.PDB" /Gd /TP C:\USERS\JUSTIN\DESKTOP\HELLO-GAME\PROJECT_ONE\TILEMAP.CPP
^C:\USERS\JUSTIN\DESKTOP\HELLO-GAME\PROJECT_ONE\WIN32_MAIN.CPP
/c /Zi /nologo /W3 /WX- /Od /D WIN32 /D _DEBUG /D _WINDOWS /D _MBCS /Gm /EHsc /RTC1 /MDd /GS /fp:precise /Zc:wchar_t /Zc:forScope /Fo"X64\DEBUG\\" /Fd"X64\DEBUG\VC120.PDB" /Gd /TP C:\USERS\JUSTIN\DESKTOP\HELLO-GAME\PROJECT_ONE\WIN32_MAIN.CPP
